{
  "page": 1,
  "pageSize": 10,
  "totalPages": 5,
  "totalRecords": 54,
  "morePages": true,
  "records": [
    {
      "recordNumber": 1,
      "credentialId": "0015Y00002UWiDDQA1",
      "credentialName": "Test Account",
      "credentialDefinitionId": "0015Y00002UWiDDQA1",
      "connectionId": "0015Y00002UWiDDQA1",
      "holderId": "0015Y00002UWiDDQA1",
      "contactId": "0015Y00002UWiDDQA1",
      "agentId": "0015Y00002UWiDDQA1",
      "state": "ready to offer",
      "attributes": [
        {
          "attributeName": "Firstname",
          "type": "text",
          "textValue": "Fred",
          "numberValue": 123,
          "dateValue": "2001-01-01",
          "datetimeValue": "2001-01-01T18:25:43Z",
          "booleanValue": true,
          "urlValue": "string"
        }
      ]
    }
  ]
}
