{
  "page": 1,
  "pageSize": 10,
  "totalPages": 5,
  "totalRecords": 54,
  "morePages": true,
  "records": [
    {
      "recordNumber": 1,
      "issueGroupId": "0015Y00002UWiDDQA1",
      "issueGroupName": "Test Issue Group"
    }
  ]
}
