{
  "page": 1,
  "pageSize": 10,
  "totalPages": 5,
  "totalRecords": 54,
  "morePages": true,
  "records": [
    {
      "recordNumber": 1,
      "credentialDefinitionId": "0015Y00002UWiDDQA1",
      "credentialDefinitionName": "Test Credential Definition",
      "attributes": [
        {
          "attributeName": "Firstname",
          "type": "text",
          "textValue": "Fred"
        }
      ]
    }
  ]
}
