{
  "page": 1,
  "pageSize": 10,
  "totalPages": 5,
  "totalRecords": 54,
  "morePages": true,
  "records": [
    {
      "recordNumber": 1,
      "verificationDefinitionId": "0015Y00002UWiDDQA1",
      "verificationDefinitionName": "Test Verification Definition",
      "verificationAttributes": [
        {
          "attributeName": "Firstname"
        }
      ],
      "verificationPredicates": [
        {
          "predicateName": "Over 21"
        }
      ]
    }
  ]
}
