{
  "page": 1,
  "pageSize": 10,
  "totalPages": 5,
  "totalRecords": 54,
  "morePages": true,
  "records": [{}]
}
